{
  "files": {
    "main.css": "/static/css/main.a6495883.chunk.css",
    "main.js": "/static/js/main.45fe1c55.chunk.js",
    "main.js.map": "/static/js/main.45fe1c55.chunk.js.map",
    "runtime-main.js": "/static/js/runtime-main.1c2fbcf8.js",
    "runtime-main.js.map": "/static/js/runtime-main.1c2fbcf8.js.map",
    "static/css/2.a4567992.chunk.css": "/static/css/2.a4567992.chunk.css",
    "static/js/2.9c8229e5.chunk.js": "/static/js/2.9c8229e5.chunk.js",
    "static/js/2.9c8229e5.chunk.js.map": "/static/js/2.9c8229e5.chunk.js.map",
    "index.html": "/index.html",
    "precache-manifest.f90971e1013b1e04f4a65cb66d139103.js": "/precache-manifest.f90971e1013b1e04f4a65cb66d139103.js",
    "service-worker.js": "/service-worker.js",
    "static/css/2.a4567992.chunk.css.map": "/static/css/2.a4567992.chunk.css.map",
    "static/css/main.a6495883.chunk.css.map": "/static/css/main.a6495883.chunk.css.map",
    "static/js/2.9c8229e5.chunk.js.LICENSE.txt": "/static/js/2.9c8229e5.chunk.js.LICENSE.txt"
  },
  "entrypoints": [
    "static/js/runtime-main.1c2fbcf8.js",
    "static/css/2.a4567992.chunk.css",
    "static/js/2.9c8229e5.chunk.js",
    "static/css/main.a6495883.chunk.css",
    "static/js/main.45fe1c55.chunk.js"
  ]
}